Laboratorio10/Ejercicio02/datos_tb.vcd
$date
	Fri Nov 06 22:33:30 2020
$end
$version
	Icarus Verilog
$end
$timescale
	1ps
$end
$scope module testbench $end
$var wire 4 ! dataOut [3:0] $end
$var wire 1 " Z $end
$var wire 1 # C $end
$var reg 1 $ clk $end
$var reg 3 % control [2:0] $end
$var reg 4 & dataIn [3:0] $end
$var reg 1 ' enableOutALU $end
$var reg 1 ( loadAcu $end
$var reg 1 ) reset $end
$scope module process $end
$var wire 1 $ clk $end
$var wire 3 * control [2:0] $end
$var wire 4 + dataIn [3:0] $end
$var wire 1 ' enableOutALU $end
$var wire 1 ( loadAcu $end
$var wire 1 ) reset $end
$var wire 4 , dataOut [3:0] $end
$var wire 4 - data [3:0] $end
$var wire 4 . acuOut [3:0] $end
$var wire 1 " Z $end
$var wire 1 # C $end
$scope module acu $end
$var wire 1 $ clk $end
$var wire 1 ( load $end
$var wire 1 ) reset $end
$var wire 4 / D [3:0] $end
$var reg 4 0 Q [3:0] $end
$upscope $end
$scope module aritmetica $end
$var wire 4 1 A [3:0] $end
$var wire 4 2 B [3:0] $end
$var wire 1 " Z $end
$var wire 3 3 control [2:0] $end
$var wire 4 4 out [3:0] $end
$var wire 1 # C $end
$var reg 5 5 resultado [4:0] $end
$upscope $end
$scope module busDriverOut $end
$var wire 1 ' enable $end
$var wire 4 6 in [3:0] $end
$var wire 4 7 y [3:0] $end
$upscope $end
$upscope $end
$upscope $end
$enddefinitions $end
#0
$dumpvars
bz 7
bx 6
b0xxxx 5
bx 4
b0 3
b0 2
bx 1
bx 0
bx /
bx .
bx -
bz ,
b0 +
b0 *
0)
0(
0'
b0 &
b0 %
0$
0#
x"
bz !
$end
#1
1"
b0 -
b0 /
b0 4
b0 6
b0 5
b0 .
b0 0
b0 1
1)
1$
#2
0)
0$
#3
1$
#4
0$
b1111 &
b1111 +
b1111 2
#5
1$
#6
b0 !
b0 ,
b0 7
0$
1'
#7
1$
#8
0"
b1111 !
b1111 ,
b1111 7
b1111 -
b1111 /
b1111 4
b1111 6
b1111 5
0$
b11 %
b11 *
b11 3
#9
b1110 !
b1110 ,
b1110 7
b1110 -
b1110 /
b1110 4
b1110 6
1#
b11110 5
b1111 .
b1111 0
b1111 1
1$
1(
#10
0$
0(
#11
1$
#12
0$
#13
1$
#14
b101 !
b101 ,
b101 7
b101 -
b101 /
b101 4
b101 6
b10101 5
0$
b110 &
b110 +
b110 2
#15
1$
#16
b1001 !
b1001 ,
b1001 7
b1001 -
b1001 /
b1001 4
b1001 6
0#
b1001 5
0$
b1 %
b1 *
b1 3
#17
b11 !
b11 ,
b11 7
b11 -
b11 /
b11 4
b11 6
b11 5
b1001 .
b1001 0
b1001 1
1$
1(
#18
0$
0(
#19
1$
#20
b110 !
b110 ,
b110 7
b110 -
b110 /
b110 4
b110 6
b110 5
0$
b10 %
b10 *
b10 3
#21
b110 .
b110 0
b110 1
1$
1(
#22
0$
0(
#23
1$
#24
bz !
bz ,
bz 7
0$
0'
#25
1$
#26
b110 !
b110 ,
b110 7
0$
1'
#27
1$
#28
b1010 !
b1010 ,
b1010 7
b1010 -
b1010 /
b1010 4
b1010 6
b1010 5
0$
b1010 &
b1010 +
b1010 2
#29
b1010 .
b1010 0
b1010 1
1$
1(
#30
0$
0(
#31
1$
#32
b101 !
b101 ,
b101 7
b101 -
b101 /
b101 4
b101 6
1#
b10101 5
0$
b100 %
b100 *
b100 3
#33
1$
#34
0$
b1000 &
b1000 +
b1000 2
